{
  "global": {
    "gmail_pass": "dixxrgekovaqdmor",
    "global_user": "qaautomation@reblaze.com"
  },

  "acl": {
    "acl_user": "qaautomation@reblaze.com",
    "acl_pass": "1!2@3#4$",
    "otp_seed": "TKTTDEJWBAG2WZ2A",
    "acl_key": "b15003bf7d4d4699f160275caf70e731707b99f6b630a7da79bfabe082a388a3",
    "acl_host": "rbzauto2.dev.app.reblaze.io"
  },

  "rl": {
    "rl_user": "qaautomation@reblaze.com",
    "rl_pass": "1!2@3#4$",
    "rl_url": "https://www.google.com",
    "otp_seed": "TKTTDEJWBAG2WZ2A",
    "rl_key": "3ceb16179655c70ead7c015a655b71ddb3f81eecf4d4748b4f9fb6fecf6b85b7",
    "rl_host": "rbzauto1.dev.app.reblaze.io"
  },
  "tag": {
    "tag_user": "qaautomation@reblaze.com",
    "tag_pass": "1!2@3#4$",
    "tag_url": "https://www.cnna.com",
    "otp_seed": "TKTTDEJWBAG2WZ2A",
    "tag_key": "42c36fb38ae98875ec80d73b8e3282c52f7f3aaab9196011f47edf647ab03442",
    "tag_host": "rbzqanew.dev.app.reblaze.io"
  },
  "ssl": {
    "ssl_user": "qaautomation@reblaze.com",
    "ssl_pass": "1!2@3#4$",
    "ssl_url": "https://www.abc.com",
    "otp_seed": "TKTTDEJWBAG2WZ2A",
    "ssl_key": "42c36fb38ae98875ec80d73b8e3282c52f7f3aaab9196011f47edf647ab03442",
    "ssl_host": "rbzqanew.dev.app.reblaze.io"
  },

  "vl": {
    "vl_user": "qaautomation@reblaze.com",
    "vl_pass": "1!2@3#4$",
    "vl_url": "https://www.abc.com",
    "otp_seed": "TKTTDEJWBAG2WZ2A",
    "vl_key": "8e7f2243f4411cfa42249fd67623ec86c3187d14d102762c72ba1d1fde847529",
    "vl_host": "rbzauto4.dev.app.reblaze.io"
  },

  "auto1": {
    "auto1_user": "rebauto1@yahoo.com",
    "auto1_pass": "rebaut0!",
    "otp_seed": "CIO2XTL2L5KVIKKB"
  },

  "auto2": {
    "auto2_user": "rebauto2@yahoo.com",
    "auto2_pass": "rebaut0@",
    "otp_seed": "VAFEGIXTF47IXPZO"
  },

  "auto3": {
    "auto3_user": "rebauto3@yahoo.com",
    "auto3_pass": "rebaut0#",
    "otp_seed": "IK4UOYRZ4QLZYDKY"
  },
  "auto4": {
    "auto4_user": "rebauto4@yahoo.com",
    "auto4_pass": "rebaut0$",
    "otp_seed": "ACDGJ3E45OJN5TJF"
  },

  "unauth_user": {
    "auto1_user": "rebauto1@yahoo.com",
    "auto1_pass": "rebaut0!",
    "otp_seed": "CIO2XTL2L5KVIKKB",
    "auto1_key": "",
    "auto1_host": ""
  }
}