{
  "rl_url": "https://rbzauto1.dev.app.reblaze.io/signin",
  "rl_base_url": "http://rate-test.rbzauto1.dev.rbzdns.com",
  "rl_base_url_4": "http://aate-test.rbzauto1.dev.rbzdns.com",
  "rl_base_url_5": "http://bate-test.rbzauto1.dev.rbzdns.com",
  "rl_base_url_6": "http://cate-test.rbzauto1.dev.rbzdns.com",
  "rl_base_url_7": "http://date-test.rbzauto1.dev.rbzdns.com",
  "rl_base_url_8": "http://eate-test.rbzauto1.dev.rbzdns.com",
  "rl_base_url_9": "http://fate-test.rbzauto1.dev.rbzdns.com",
  "rl_base_url_10": "http://gate-test.rbzauto1.dev.rbzdns.com",
  "rl_base_url_11": "http://hate-test.rbzauto1.dev.rbzdns.com",
  "rl_base_url_12": "http://iate-test.rbzauto1.dev.rbzdns.com",
  "rl_base_url_13": "http://jate-test.rbzauto1.dev.rbzdns.com",
  "rl_base_url_14": "http://kate-test.rbzauto1.dev.rbzdns.com",
  "rl_base_url_15": "http://late-test.rbzauto1.dev.rbzdns.com",
  "rl_base_url_16": "http://mate-test.rbzauto1.dev.rbzdns.com",
  "rl_base_url_17": "http://nate-test.rbzauto1.dev.rbzdns.com",
  "rl_base_url_18": "http://oate-test.rbzauto1.dev.rbzdns.com",
  "rl_base_url_19": "http://pate-test.rbzauto1.dev.rbzdns.com",
  "rl_base_url_20": "http://qate-test.rbzauto1.dev.rbzdns.com",
  "rl_base_url_21": "http://sate-test.rbzauto1.dev.rbzdns.com",
  "rl_base_url_22": "http://tate-test.rbzauto1.dev.rbzdns.com",
  "rl_base_url_23": "http://uate-test.rbzauto1.dev.rbzdns.com",
  "rl_base_url_24": "http://vate-test.rbzauto1.dev.rbzdns.com",
  "rl_base_url_25": "http://wate-test.rbzauto1.dev.rbzdns.com",
  "rl_base_url_26": "http://xate-test.rbzauto1.dev.rbzdns.com",
  "rl_base_url_27": "http://yate-test.rbzauto1.dev.rbzdns.com",
  "rl_base_url_28": "http://zate-test.rbzauto1.dev.rbzdns.com",
  "rl_base_url_29": "http://aa-test.rbzauto1.dev.rbzdns.com",
  "rl_base_url_30": "http://bb-test.rbzauto1.dev.rbzdns.com",
  "rl_base_url_31": "http://cc-test.rbzauto1.dev.rbzdns.com",
  "rl_base_url_32": "http://dd-test.rbzauto1.dev.rbzdns.com",
  "rl_base_url_33": "http://ee-test.rbzauto1.dev.rbzdns.com",
  "rl_base_url_34": "http://ff-test.rbzauto1.dev.rbzdns.com",
  "rl_base_url_35": "http://gg-test.rbzauto1.dev.rbzdns.com",
  "rl_base_url_36": "http://hh-test.rbzauto1.dev.rbzdns.com",
  "rl_base_url_37": "http://ii-test.rbzauto1.dev.rbzdns.com",
  "rl_base_url_38": "http://jj-test.rbzauto1.dev.rbzdns.com",
  "rl_base_url_39": "http://kk-test.rbzauto1.dev.rbzdns.com",
  "rl_base_url_40": "http://ll-test.rbzauto1.dev.rbzdns.com",
  "rl_base_url_41": "http://mm-test.rbzauto1.dev.rbzdns.com",
  "rl_base_url_42": "http://nn-test.rbzauto1.dev.rbzdns.com",
  "rl_base_url_43": "http://oo-test.rbzauto1.dev.rbzdns.com",
  "rl_base_url_44": "http://pp-test.rbzauto1.dev.rbzdns.com",
  "rl_base_url_45": "http://qq-test.rbzauto1.dev.rbzdns.com",
  "rl_base_url_46": "http://rr-test.rbzauto1.dev.rbzdns.com",
  "rl_base_url_47": "http://ss-test.rbzauto1.dev.rbzdns.com",
  "rl_base_url_48": "http://tt-test.rbzauto1.dev.rbzdns.com",
  "rl_base_url_49": "http://uu-test.rbzauto1.dev.rbzdns.com",
  "rl_base_url_50": "http://vv-test.rbzauto1.dev.rbzdns.com",
  "rl_base_url_51": "http://ww-test.rbzauto1.dev.rbzdns.com",
  "rl_base_url_52": "http://xx-test.rbzauto1.dev.rbzdns.com",
  "rl_base_url_53": "http://yy-test.rbzauto1.dev.rbzdns.com",
  "rl_base_url_54": "http://zz-test.rbzauto1.dev.rbzdns.com",
  "rl_base_url_55": "http://abc-test.rbzauto1.dev.rbzdns.com",
  "rl_base_url_56": "http://bcd-test.rbzauto1.dev.rbzdns.com",
  "rl_base_url_57": "http://cda-test.rbzauto1.dev.rbzdns.com",
  "rl_base_url_58": "http://asd-test.rbzauto1.dev.rbzdns.com",
  "rl_base_url_59": "http://sdf-test.rbzauto1.dev.rbzdns.com",
  "rl_base_url_60": "http://dfg-test.rbzauto1.dev.rbzdns.com",
  "rl_base_url_61": "http://fgh-test.rbzauto1.dev.rbzdns.com",
  "rl_base_url_62": "http://ghj-test.rbzauto1.dev.rbzdns.com",
  "rl_base_url_63": "http://hjk-test.rbzauto1.dev.rbzdns.com",
  "rl_base_url_64": "http://jkl-test.rbzauto1.dev.rbzdns.com",
  "rl_base_url_65": "http://qwe-test.rbzauto1.dev.rbzdns.com",
  "rl_base_url_66": "http://wer-test.rbzauto1.dev.rbzdns.com",
  "rl_base_url_67": "http://ert-test.rbzauto1.dev.rbzdns.com",
  "rl_base_url_68": "http://rty-test.rbzauto1.dev.rbzdns.com",
  "rl_base_url_69": "http://tyu-test.rbzauto1.dev.rbzdns.com",
  "rl_base_url_70": "http://yui-test.rbzauto1.dev.rbzdns.com",
  "rl_base_url_71": "http://uio-test.rbzauto1.dev.rbzdns.com",
  "rl_base_url_72": "http://iop-test.rbzauto1.dev.rbzdns.com",
  "rl_base_url_73": "http://zxc-test.rbzauto1.dev.rbzdns.com",
  "rl_base_url_74": "http://xcv-test.rbzauto1.dev.rbzdns.com",
  "rl_base_url_75": "http://cvb-test.rbzauto1.dev.rbzdns.com",
  "rl_base_url_76": "http://vbn-test.rbzauto1.dev.rbzdns.com",
  "rl_base_url_77": "http://bnm-test.rbzauto1.dev.rbzdns.com",
  "rl_base_url_78": "http://qaz-test.rbzauto1.dev.rbzdns.com",
  "rl_base_url_79": "http://wsx-test.rbzauto1.dev.rbzdns.com",
  "rl_base_url_80": "http://edc-test.rbzauto1.dev.rbzdns.com"
}